Deploy with Docker – MLOps with vetiver
…
[3 rows x 7 columns]

library(tidyverse)
superbowl_ads_raw <- read_csv('https://raw.githubusercontent.com/rfordatascience/tidytuesday/master/data/2021/2021-03-02/youtube.csv')

superbowl_ads <-
    superbowl_ads_raw %>%
    select(funny:animals, like_count) %>%
    na.omit()

superbowl_ads

# A tibble: 225 × 7
   funny show_product_quickly patriotic celebrity danger animals like_count
   <lgl> <lgl>                <lgl>     <lgl>     <lgl>  <lgl>        <dbl>
 1 FALSE FALSE                FALSE     FALSE     FALSE  FALSE         1233
 2 TRUE  TRUE                 FALSE     TRUE      TRUE   FALSE          485
 3 TRUE  FALSE                FALSE     FALSE     TRUE   TRUE           129
 4 FALSE TRUE                 FALSE     FALSE     FALSE  FALSE            2
 5 TRUE  TRUE                 FALSE     FALSE     TRUE   TRUE            20
 6 TRUE  TRUE                 FALSE     TRUE      TRUE   TRUE           115
 7 TRUE  FALSE                FALSE     TRUE      FALSE  TRUE          1470
 8 FALSE FALSE                FALSE     TRUE      FALSE  FALSE           78
 9 TRUE  TRUE                 FALSE     TRUE      FALSE  TRUE           342
10 FALSE TRUE                 TRUE      TRUE      TRUE   FALSE            7
# ℹ 215 more rows
…
